# Area 27
[name]
Area 27

[outer]
-119.5205316077806,49.16226019006476,0
-119.5206820885159,49.16156992050304,0
-119.5209047202469,49.16057692727762,0
-119.5209474430748,49.16037633492895,0
-119.5209685594589,49.16024397799131,0
-119.5209650377207,49.16017492211499,0
-119.5209351161519,49.16009435745418,0
-119.5208914137717,49.16001814111493,0
-119.5208425441315,49.15995428286733,0
-119.5207714346601,49.15989755011822,0
-119.5206922353482,49.15985151342399,0
-119.5206228454873,49.15981597733879,0
-119.5205323013964,49.1597813074868,0
-119.5204380449198,49.15975853638925,0
-119.5203031547206,49.15973796837118,0
-119.5202068652811,49.15973338948637,0
-119.5200671616433,49.15974114137667,0
-119.5199481899296,49.15976087972223,0
-119.5198242300852,49.15979282558689,0
-119.5193487581458,49.15998443423631,0
-119.518126336929,49.16050137800673,0
-119.5162844877821,49.1612477157347,0
-119.5150569936933,49.16173997342906,0
-119.513637246847,49.16231700353132,0
-119.5128616197916,49.16263798559583,0
-119.5117290372963,49.16309405479371,0
-119.511428612064,49.16321520317807,0
-119.5112431106446,49.16330670996513,0
-119.5110906919022,49.1634009670058,0
-119.5109915017727,49.16348228809385,0
-119.5109236998655,49.16354388417682,0
-119.5108369892219,49.16364702523681,0
-119.5107628486,49.16380309028825,0
-119.5107212721581,49.16394486636005,0
-119.5107196154467,49.16407537109799,0
-119.5107395289955,49.16419584040165,0
-119.5107804528568,49.16429903282534,0
-119.5108417446277,49.16439959155529,0
-119.510917214545,49.16449080376426,0
-119.5109966657144,49.16456922159552,0
-119.5111064385475,49.16465548592092,0
-119.5112573825531,49.16475176475905,0
-119.5114596685169,49.16484384805455,0
-119.5117057293598,49.1649394423897,0
-119.5119244328771,49.16502688305722,0
-119.5126567743203,49.16532851697168,0
-119.5132390088263,49.16556278651542,0
-119.5133551052163,49.1656128498045,0
-119.5134233942817,49.16564458244559,0
-119.5134773045902,49.1656868901082,0
-119.5135204302473,49.16574212375328,0
-119.5135294089244,49.16580088093725,0
-119.5135150220204,49.16587608869698,0
-119.5134646917409,49.16594894431353,0
-119.5133802172892,49.16599594492387,0
-119.5132723807454,49.16603236815436,0
-119.5131429604344,49.16605347424397,0
-119.5130872440776,49.16605579520471,0
-119.5126793429949,49.16604520911267,0
-119.5117519729743,49.16600890932617,0
-119.5107189372536,49.16596385721084,0
-119.5103956332812,49.16595419940002,0
-119.5102251447954,49.16595183638953,0
-119.5101060431585,49.16596570385947,0
-119.5100074083003,49.165995667166,0
-119.5099174156537,49.16603016389443,0
-119.5098432327324,49.16606568184327,0
-119.5097899414729,49.16611348621221,0
-119.5097391209079,49.16617621648613,0
-119.5097054732685,49.16624279785244,0
-119.5096939187879,49.1663048617511,0
-119.5096947171821,49.16638561634483,0
-119.5097038182647,49.16646227613056,0
-119.5097620946674,49.16656738080695,0
-119.5098339815134,49.16670241308689,0
-119.5098904491827,49.16677505995909,0
-119.5099477867351,49.16682847758048,0
-119.5100064337306,49.16686732088037,0
-119.5101177612665,49.16692765965369,0
-119.5102550139374,49.16698122607983,0
-119.5103943941657,49.16702903038646,0
-119.5104961796409,49.1670504201118,0
-119.5106159796363,49.16705561096473,0
-119.5107455988991,49.16704162669366,0
-119.510825927308,49.16701821668322,0
-119.5109235349417,49.16697140389205,0
-119.5110180452484,49.16691244926965,0
-119.5110676907518,49.16688639749294,0
-119.5111273460786,49.16685140851622,0
-119.5112233404417,49.16680397733384,0
-119.5113314306088,49.16675772851399,0
-119.5114382495799,49.16672324959595,0
-119.511547047582,49.16669764829063,0
-119.5117138455227,49.16666843792732,0
-119.511837261448,49.16665303172541,0
-119.5119554348565,49.16664745122684,0
-119.5123393908538,49.16663132101241,0
-119.5128923561326,49.1666189465347,0
-119.5134350342177,49.16661443932006,0
-119.5136147055642,49.16662211369442,0
-119.5137629771607,49.16663821474064,0
-119.5138673132561,49.16665304470803,0
-119.5140019260473,49.16668553707152,0
-119.5141224061696,49.16672093665231,0
-119.5142516153699,49.16676889565738,0
-119.5143895538764,49.16683398066586,0
-119.5144855858575,49.16688878819672,0
-119.5145641568753,49.16694473649788,0
-119.5146491558466,49.16700281186287,0
-119.5147237279591,49.16708166938943,0
-119.5147980508154,49.16716055108664,0
-119.51488441882,49.1672759421417,0
-119.5149192649708,49.16732665812033,0
-119.5150810098851,49.16763582841589,0
-119.5153453266963,49.16816311389114,0
-119.5154009126167,49.16823757633228,0
-119.5154512904853,49.16828594628331,0
-119.5154978075171,49.16831730266712,0
-119.5155776153069,49.1683474497023,0
-119.5156632662756,49.16837461570695,0
-119.515763644392,49.16838885723654,0
-119.5158541159916,49.16839415656273,0
-119.5159493301341,49.16838462162509,0
-119.5160446812566,49.16836123529567,0
-119.5161489721057,49.16832380952721,0
-119.5162761423903,49.16827633885966,0
-119.5165082476591,49.16818963783385,0
-119.5165660977375,49.16815854130282,0
-119.5166667215143,49.16810260902223,0
-119.5167228650992,49.16804767516044,0
-119.5167737327069,49.16797303830468,0
-119.5168058664416,49.16788212090509,0
-119.5168075599093,49.16780578563873,0
-119.5167737479705,49.16771279513218,0
-119.5167092989121,49.16762832977943,0
-119.5165607430166,49.16745259130019,0
-119.5160685787851,49.16691224545536,0
-119.5157978860948,49.16667567618514,0
-119.5146400851204,49.16573398078672,0
-119.5143234920428,49.16547592864495,0
-119.5142591537992,49.16541498511702,0
-119.5142105154483,49.16536048825094,0
-119.5141705739994,49.16530824520312,0
-119.5141427924382,49.16524010339774,0
-119.5141410629153,49.16517536996601,0
-119.5141618922855,49.16511062373007,0
-119.5141982807817,49.16505713825816,0
-119.514253891075,49.16499916658558,0
-119.5143077859856,49.16495034910405,0
-119.5143825105783,49.16490054793838,0
-119.5152881858822,49.16434858119715,0
-119.5153713277229,49.16430317513955,0
-119.5154444947899,49.16423902870378,0
-119.5154960451332,49.16418031872198,0
-119.5155259792466,49.16412595654361,0
-119.5155492630136,49.16406072172781,0
-119.5155525934383,49.16400200946268,0
-119.5155443980522,49.1639411077927,0
-119.5155120661866,49.16388314921861,0
-119.5154458177559,49.16380859128408,0
-119.5149913635987,49.16333798320949,0
-119.5148913933252,49.16321840489334,0
-119.5148556167589,49.16315461976652,0
-119.5148127951434,49.16307553866146,0
-119.5147971084666,49.16297668100743,0
-119.5148143693547,49.1628744723068,0
-119.5148658335897,49.16277815820579,0
-119.5149307818487,49.16270440443167,0
-119.5150572540636,49.16261836048812,0
-119.5160528636656,49.16224866408888,0
-119.5162081828365,49.16220916393007,0
-119.5163930062878,49.16216997290422,0
-119.516578251159,49.1621432200137,0
-119.5167346037506,49.16212893218604,0
-119.5168724624535,49.16212673674985,0
-119.5170645825262,49.16212716341462,0
-119.5172142103935,49.16211617362668,0
-119.5173369376989,49.16208979124317,0
-119.5174180227607,49.16206515689681,0
-119.5175107497244,49.16201961586197,0
-119.5176081520758,49.16195463763961,0
-119.518777740812,49.16116743931958,0
-119.5195109473486,49.16068958988472,0
-119.5195512948709,49.16066980130872,0
-119.5196185407772,49.16066430441161,0
-119.5196941923743,49.16066430438087,0
-119.5197463078631,49.16068519237164,0
-119.5197900177556,49.16071047792106,0
-119.5198253220549,49.16074785639024,0
-119.519865669726,49.16080612290416,0
-119.5198841625616,49.16086219071801,0
-119.5198875249837,49.16092045706373,0
-119.5198908873309,49.16098202171471,0
-119.5198791194863,49.1610523814913,0
-119.5198488590934,49.16110625062683,0
-119.5198219606256,49.16113593352393,0
-119.5189295054023,49.16204865645985,0
-119.5179388830081,49.16305928508015,0
-119.5169708204355,49.16402315610289,0
-119.5167645983857,49.16425226356032,0
-119.5166473997716,49.16438504875084,0
-119.5165925692708,49.16449997736103,0
-119.5165723598789,49.16458528080603,0
-119.5165723546027,49.16466399978316,0
-119.5165903402323,49.16475134918357,0
-119.5166182368061,49.16483597564283,0
-119.517007229943,49.16568997156826,0
-119.5170548867777,49.16580853049413,0
-119.51711179263,49.16587835032486,0
-119.5172047986406,49.16593955846053,0
-119.5173016662737,49.16598310567076,0
-119.5174022566761,49.16600324588475,0
-119.5175149158826,49.16601668787288,0
-119.517658544065,49.16601569508017,0
-119.5177910501049,49.16598532241,0
-119.5179066039634,49.16592955603464,0
-119.5179865057289,49.16586708186895,0
-119.5180602498176,49.16579249035246,0
-119.5180827551685,49.16572440987731,0
-119.5180807018153,49.16563909666563,0
-119.5180586884987,49.16518169732897,0
-119.5180539022165,49.16511379804145,0
-119.518066920851,49.16503716939849,0
-119.5181016418999,49.16495602591255,0
-119.5181500931365,49.16488847155208,0
-119.518228970307,49.16479890636653,0
-119.5182973336193,49.16474414869072,0
-119.5184101325581,49.16466927622944,0
-119.5185331848489,49.164611166345,0
-119.5186699090119,49.16456981933779,0
-119.518775869965,49.16454746976206,0
-119.5191021914201,49.16447927231437,0
-119.5194933434228,49.16439979422599,0
-119.5196619049093,49.16435040237474,0
-119.5197754599369,49.16430568675149,0
-119.5198684384457,49.16425483722094,0
-119.5199681789855,49.16418077404376,0
-119.5200531771882,49.16408936583169,0
-119.5201131117207,49.1639972351913,0
-119.5201590797869,49.16388376171422,0
-119.5201964089609,49.1637294198918,0
-119.5203929873894,49.16289858926991,0
-119.5205316077806,49.16226019006476,0

[inner]
-119.5203757497318,49.16224054999848,0
-119.5205378624805,49.16157014894945,0
-119.5207114801699,49.16083485065828,0
-119.5207716355771,49.16056233070009,0
-119.5208285003159,49.160283380697,0
-119.5208227194002,49.16017681212131,0
-119.5207826479374,49.16008170445046,0
-119.5207292208363,49.16001862303889,0
-119.5206431449447,49.15994874829148,0
-119.5205624088582,49.15990440089488,0
-119.5204786280585,49.15987326020015,0
-119.5204059455626,49.15985293719968,0
-119.5202864873129,49.1598365425754,0
-119.5201729020759,49.15983268785095,0
-119.5200782837399,49.15984138959421,0
-119.5199720020504,49.15985876994281,0
-119.5199279824457,49.15987514303482,0
-119.5185555380228,49.16043068525995,0
-119.5172064252347,49.16098214318888,0
-119.5153588901253,49.16172289804702,0
-119.5150164154977,49.16186779094127,0
-119.513729451881,49.16238637169331,0
-119.5130967065347,49.16265812110477,0
-119.5123980776495,49.16292521753238,0
-119.5113887767865,49.16334670618875,0
-119.5112086592257,49.16345412374349,0
-119.5110653631503,49.16357649342501,0
-119.5109638296382,49.16370413348547,0
-119.5109062394126,49.16382622363676,0
-119.5108816505726,49.16394015460832,0
-119.5108777888361,49.16407058082697,0
-119.5109018850793,49.1641913423157,0
-119.5109521356584,49.16430931500492,0
-119.5110091666835,49.16439114827025,0
-119.5110969265829,49.16448776009413,0
-119.5112050476324,49.16458221373576,0
-119.5113207385025,49.16465527006115,0
-119.5114994868033,49.16474403589628,0
-119.5125154370149,49.16516323744946,0
-119.5132403357686,49.16546338772851,0
-119.5134428618246,49.16554286209956,0
-119.5135627365591,49.16561594305183,0
-119.5136480673836,49.16569965140563,0
-119.5136805669015,49.16579398563213,0
-119.5136642995043,49.16588433163437,0
-119.5135970827282,49.16597700371552,0
-119.5135137308895,49.16604566115078,0
-119.5133798064532,49.16610141590925,0
-119.5132217160366,49.16614577935909,0
-119.513055619493,49.16615749849799,0
-119.5128941552804,49.16615798769318,0
-119.5124058880732,49.16613319648774,0
-119.5113751878165,49.16609140435307,0
-119.5107774404389,49.16605672904799,0
-119.5103057104701,49.16604600471665,0
-119.5101887122384,49.16605597906123,0
-119.510056438759,49.16608010093018,0
-119.5099508945081,49.16613650625115,0
-119.5098721917481,49.16621624835126,0
-119.5098387303839,49.16631786114258,0
-119.5098485693821,49.16643478589719,0
-119.5098905006323,49.16652239731226,0
-119.5099459225761,49.16662316075421,0
-119.5099868408649,49.16669170963626,0
-119.5100283366163,49.16674211376603,0
-119.5100950981294,49.16679263619216,0
-119.5101906843541,49.16684293172356,0
-119.5102952889832,49.16688730806894,0
-119.5103905975167,49.16691977511495,0
-119.5104759777535,49.1669496444146,0
-119.5105621136036,49.16696624269764,0
-119.5107004524139,49.16695298195128,0
-119.5107862405809,49.16692429136608,0
-119.5108856156327,49.16687142121835,0
-119.510975230428,49.16680679375678,0
-119.5111014400501,49.16674011473312,0
-119.5112955745589,49.16666389543584,0
-119.5115099034346,49.166603764508,0
-119.5116625756606,49.16656978624945,0
-119.5118050286093,49.1665606347138,0
-119.5124855893841,49.16653329905964,0
-119.5131376555914,49.16652010300889,0
-119.5134581805162,49.16652012056213,0
-119.5136750818945,49.16653270900647,0
-119.5138668427494,49.16655918842547,0
-119.5140874550352,49.1666052329444,0
-119.5142398475563,49.1666557282658,0
-119.5143637930136,49.16670356469572,0
-119.5144857054221,49.16676202992507,0
-119.5146076171261,49.16683245269508,0
-119.5147054612952,49.16690275304865,0
-119.5148444741697,49.16702146099972,0
-119.5149374740591,49.16712778345109,0
-119.5150085868366,49.16722487249439,0
-119.5150796681112,49.16733733188108,0
-119.5152455692695,49.16766316149013,0
-119.515358784049,49.16790131383506,0
-119.5154771010976,49.16813291964281,0
-119.5155334701957,49.16820333563774,0
-119.5156281429052,49.16826123604585,0
-119.5157339062013,49.16829148917439,0
-119.515873473211,49.16829473945668,0
-119.5160013582313,49.16826222181952,0
-119.516332521065,49.16814939279615,0
-119.5164705003427,49.16810071476004,0
-119.5165536170894,49.16804796348385,0
-119.5166186222523,49.16799549052224,0
-119.5166637961926,49.16792252039615,0
-119.5166736050712,49.16785239694692,0
-119.5166618431318,49.16778101744698,0
-119.5166284676522,49.16772514761885,0
-119.5165753339064,49.16765870996255,0
-119.5165161164197,49.16759074787347,0
-119.516144372149,49.16718209405521,0
-119.5160533544134,49.1670802527195,0
-119.5158697579735,49.16689112166465,0
-119.5157295614319,49.16676356805452,0
-119.5155588595347,49.16661732159368,0
-119.5150956041105,49.16624927408858,0
-119.5145368602899,49.16579751603101,0
-119.5143350415565,49.16563337851798,0
-119.5141355390441,49.16546863746422,0
-119.5140372271249,49.16534535177217,0
-119.5139959299381,49.16526862941544,0
-119.5139900215478,49.16517719015009,0
-119.514006558426,49.16510540387652,0
-119.5140632090508,49.16501503584868,0
-119.5141952974478,49.16488749458109,0
-119.5143355438623,49.16479784084635,0
-119.5145267638089,49.16469066927564,0
-119.5147915031862,49.16453238576996,0
-119.5150264359798,49.16438540895121,0
-119.5152082741223,49.16427597054537,0
-119.5153076580118,49.16420971756873,0
-119.5153466331634,49.16416894572102,0
-119.5153875574944,49.16411695260621,0
-119.5154070507042,49.16403030951225,0
-119.5153936692247,49.16394642606883,0
-119.5153355082822,49.16385988955252,0
-119.5151438316525,49.16366923200847,0
-119.5150034033387,49.16352647302794,0
-119.5148733660054,49.16338749819887,0
-119.5147855112843,49.1632851096211,0
-119.5147152514775,49.16318688343301,0
-119.5146670417233,49.16308830654119,0
-119.5146492576698,49.16298456271635,0
-119.5146553229133,49.16290252537451,0
-119.5146825894969,49.16281862963667,0
-119.5147281320638,49.16274953777445,0
-119.5147993033792,49.16267009135417,0
-119.5148670010175,49.16261107440253,0
-119.5149607339783,49.16254978839982,0
-119.5150857088314,49.1624941787035,0
-119.5152584551897,49.16243186040371,0
-119.5154628838411,49.16235586537965,0
-119.5156872311053,49.16226671821466,0
-119.5160463508998,49.16213001561768,0
-119.5162095018226,49.16210103002275,0
-119.5163382907769,49.16207857549144,0
-119.5164916183271,49.16205923197769,0
-119.5166591472622,49.16203587288462,0
-119.5168799479022,49.16203096761049,0
-119.5171002691117,49.16203432289343,0
-119.5172192385717,49.16202174902779,0
-119.5173029271008,49.16200164757288,0
-119.5173780765632,49.16197037737937,0
-119.5174703058729,49.16191565405227,0
-119.5175420860696,49.16186073624142,0
-119.5177008792475,49.16175259966786,0
-119.5183584331551,49.16131592460803,0
-119.518976607558,49.16091175751293,0
-119.5193352617912,49.16066940492512,0
-119.5194172395639,49.16062026415297,0
-119.5195111722997,49.16058229163237,0
-119.5196170600367,49.16056777268268,0
-119.5197263633687,49.16056777258705,0
-119.5198158699512,49.16059992770041,0
-119.5198852218072,49.16063766031792,0
-119.5199331574468,49.16068464336669,0
-119.5199910879621,49.16074957058711,0
-119.5200139879777,49.1608179329789,0
-119.5200293105734,49.16086708563569,0
-119.5200378505746,49.16093074503759,0
-119.5200378506699,49.16099663891594,0
-119.5200105253901,49.16107370065639,0
-119.5199729527934,49.16114741236072,0
-119.5199046381854,49.1612278248359,0
-119.519793625766,49.16134105708662,0
-119.5191505824398,49.16198352343238,0
-119.5183700295346,49.16278509637705,0
-119.5176043230238,49.16356350830056,0
-119.5171923650343,49.16398143621666,0
-119.5169341453377,49.16423913342799,0
-119.5168576977413,49.1643224405021,0
-119.5167768539128,49.16443453548364,0
-119.5167353767618,49.16451861052481,0
-119.5167149876291,49.16459525446412,0
-119.5167266163417,49.1646941470346,0
-119.5167542315298,49.16478683540284,0
-119.517178570215,49.16572643705742,0
-119.5172075138306,49.16577850682189,0
-119.5172513410813,49.16582517686136,0
-119.5173178387251,49.16586626857021,0
-119.5173933400455,49.16589486648547,0
-119.5174846666625,49.16591319710503,0
-119.517589411961,49.16591652376259,0
-119.517670438534,49.16590943971092,0
-119.5177659088291,49.16588220191726,0
-119.5178283990646,49.16585042240679,0
-119.5178804749575,49.16581069853577,0
-119.5179238723332,49.16574713954004,0
-119.5179377610895,49.16568017503821,0
-119.5179342904851,49.16565066509538,0
-119.5179101102845,49.16520932451863,0
-119.5179066412113,49.1651119212249,0
-119.5179257172021,49.16501672244895,0
-119.5179586708167,49.16494486501963,0
-119.5180002762497,49.16487550349559,0
-119.5180574684441,49.16480624890625,0
-119.5181112060221,49.16474613000829,0
-119.5181876063069,49.16467805709358,0
-119.518269328162,49.16463034814649,0
-119.5183717398389,49.16456792476005,0
-119.5184654720751,49.16452820091027,0
-119.5186091710527,49.16448861906731,0
-119.5187659957904,49.16445042561042,0
-119.5189718086282,49.16440356283005,0
-119.5191782106693,49.16436588799314,0
-119.5193885931077,49.16432274240073,0
-119.5194626018068,49.16430354335667,0
-119.5195760416701,49.16427535122057,0
-119.5196752961862,49.16423821746739,0
-119.5197684662804,49.16418778585363,0
-119.5198418317041,49.16414071673154,0
-119.5198953853744,49.16408495299724,0
-119.519948548576,49.1640216199721,0
-119.5199777319975,49.16396295761391,0
-119.5200051352353,49.16390561264809,0
-119.5200190240863,49.16385505715539,0
-119.5200494512889,49.16372059431638,0
-119.5201687860847,49.1631836809002,0
-119.5203061555846,49.16264086359569,0
-119.5203757497318,49.16224054999848,0

[startfinish]
-119.5204544174095,49.1622527509366,0

