-120.7444814490242,45.36380214508532,0
-120.7443835061224,45.36293205542204,0
-120.7443554934395,45.3626959298314,0
-120.7443326393733,45.3624777054224,0
-120.7443156092891,45.36228937967488,0
-120.7443020201745,45.36210851898541,0
-120.7442224457693,45.36178249949749,0
-120.7442019700512,45.36162228996321,0
-120.7441570247351,45.36124166710035,0
-120.7441414620027,45.36114263554025,0
-120.7441339420604,45.36108352130452,0
-120.7441265358621,45.36102787633558,0
-120.7441229401086,45.36097370300208,0
-120.7441252297396,45.36092506957437,0
-120.744126829004,45.36089308703559,0
-120.744134457922,45.36085789704391,0
-120.74414200188,45.36082569927991,0
-120.7441549901263,45.36079109455975,0
-120.7441757313809,45.36074941622953,0
-120.7441945887781,45.36071496900277,0
-120.7442329331172,45.36065755726433,0
-120.74426872131,45.36061765294009,0
-120.7443068289786,45.36058075332803,0
-120.7443419512494,45.36055143446364,0
-120.7443848267494,45.36052129193377,0
-120.744427962882,45.36049367338942,0
-120.7444643445841,45.36047266820105,0
-120.7445072381524,45.3604525867562,0
-120.7445513470071,45.36043377275965,0
-120.74462411392,45.36040652956548,0
-120.7446833513847,45.36039018520458,0
-120.7447261641309,45.36037890761288,0
-120.7447829137836,45.36037009840747,0
-120.7448905322277,45.36035707512611,0
-120.7451078938692,45.36033674443282,0
-120.745347738258,45.36031103039132,0
-120.7458162487841,45.3602659295182,0
-120.746253918835,45.36022198640479,0
-120.7463665917126,45.36020972346942,0
-120.7464315870263,45.36020438185086,0
-120.7464877268845,45.360204035836,0
-120.7465394912653,45.36020829878682,0
-120.7465904617714,45.36021749678778,0
-120.7466265382386,45.36023041647417,0
-120.7466603814316,45.36024912895764,0
-120.7466830888166,45.36026622194445,0
-120.7467091667448,45.36028953966833,0
-120.7467091630731,45.3602887621526,0
-120.7467286389882,45.36031443347603,0
-120.7467425843573,45.36034129590427,0
-120.7467497660535,45.36036780124535,0
-120.7467520400838,45.36038995958512,0
-120.7467532200014,45.3604148502124,0
-120.7467499920159,45.36044870943599,0
-120.7467039506202,45.36066171858545,0
-120.7466397731529,45.36098075747592,0
-120.7465743488271,45.36129723820557,0
-120.7464918717659,45.36171472528516,0
-120.746472276495,45.36181935850543,0
-120.7464641329948,45.36186768800903,0
-120.7464581942618,45.36192754021858,0
-120.746454570021,45.36200030313322,0
-120.746447500091,45.36214807157914,0
-120.7464454502849,45.36237859194883,0
-120.7464416083603,45.36257028609528,0
-120.7464379579906,45.36264240169233,0
-120.7464312448173,45.36269722876959,0
-120.7464185380944,45.36278867385954,0
-120.7463844049362,45.3629789695041,0
-120.7463376895664,45.36325806440689,0
-120.7463190764709,45.36337024051274,0
-120.7462978300579,45.36346488645673,0
-120.7462786167976,45.36354245434892,0
-120.7462577593997,45.36362214332893,0
-120.7462324519968,45.36370248400851,0
-120.7462067605057,45.36377433289213,0
-120.7461052120796,45.36404501890877,0
-120.7460224201606,45.36426813694889,0
-120.7459753360571,45.36439085493505,0
-120.7459706628964,45.36441846209001,0
-120.7459746796697,45.36444610111246,0
-120.7459834052351,45.36447144229726,0
-120.7459995374341,45.36448980334855,0
-120.7460177074807,45.36450159953468,0
-120.7460506262884,45.36451623358388,0
-120.7460961494909,45.36452610941941,0
-120.7461853543322,45.36453483544935,0
-120.7462871404643,45.36454040851537,0
-120.7464016312632,45.36454941944699,0
-120.7464998422425,45.36455852019984,0
-120.7465804711033,45.36456963960708,0
-120.7466422976187,45.36458131968931,0
-120.7467015015892,45.36459276528431,0
-120.7467689617712,45.36461173352222,0
-120.7468386085133,45.36463291499786,0
-120.7469100508235,45.36465994313425,0
-120.7469578073819,45.36467966972702,0
-120.7470077852575,45.36470288977,0
-120.747077311068,45.36474154952797,0
-120.7471446745367,45.36478521482174,0
-120.7472047329372,45.3648306305009,0
-120.7472514519151,45.36486768679119,0
-120.7472922319439,45.36490287372824,0
-120.7473148840556,45.36492607101997,0
-120.7473422554033,45.36495960127383,0
-120.7473626373567,45.36499587586773,0
-120.7473816388295,45.36504537482388,0
-120.7473906748767,45.36509487619723,0
-120.7473938734511,45.36512103785772,0
-120.7473907096425,45.36515739757423,0
-120.7473824617238,45.36519109796984,0
-120.7473662109095,45.3652274805976,0
-120.7473435652806,45.36526678960142,0
-120.7473167961959,45.36529990199375,0
-120.7472808499827,45.36533417307508,0
-120.7472388444753,45.36537110043083,0
-120.7471782312261,45.36541612985101,0
-120.7471055065578,45.36546661736664,0
-120.7469454559444,45.36556743168126,0
-120.746810303891,45.36564551822459,0
-120.7466294375777,45.36574680701839,0
-120.746484195024,45.36582588572136,0
-120.7464028182469,45.365873062967,0
-120.7463299596281,45.36591526031076,0
-120.7462873199787,45.36594504114051,0
-120.7462514942564,45.36597218862258,0
-120.746222079598,45.36599916755431,0
-120.7461963882457,45.36602736976437,0
-120.7461738023738,45.36605495738235,0
-120.746153707583,45.36608412670693,0
-120.746136200342,45.36611973012231,0
-120.7461200408082,45.36615119363979,0
-120.7461078618613,45.36619529222765,0
-120.7461012736391,45.36623427558296,0
-120.7460990418114,45.36626393833664,0
-120.7460990695443,45.36629117797148,0
-120.7461038079027,45.36631854578116,0
-120.7461120904125,45.36635264413159,0
-120.7461249545204,45.36638904411765,0
-120.7461458682472,45.36643485348138,0
-120.7461695595711,45.3664763958448,0
-120.7462707386101,45.36663314117214,0
-120.7464066340588,45.36683779305027,0
-120.7465824886946,45.36711156359361,0
-120.7466290679029,45.36718481412418,0
-120.7466775105841,45.36726450686584,0
-120.7467175668274,45.36733037540106,0
-120.7467633567678,45.36742183471414,0
-120.7468144842255,45.36753168332735,0
-120.7468521798684,45.36762111056023,0
-120.7470293237112,45.36801347191837,0
-120.7471921164576,45.36837760853671,0
-120.7473129407989,45.36864734054814,0
-120.7473983027623,45.36883784695799,0
-120.7474504310118,45.36895965517365,0
-120.7474735733158,45.36902916850057,0
-120.7474899204181,45.36908999558246,0
-120.7475020476548,45.36913437029488,0
-120.7475084305393,45.36918199768819,0
-120.7475158798804,45.36924649158266,0
-120.7475205799922,45.36929053177806,0
-120.7475225419164,45.36934516067166,0
-120.7475206606035,45.36940636968611,0
-120.747515776672,45.36945186650139,0
-120.7475104075346,45.3694898209823,0
-120.7475000286738,45.36954948100588,0
-120.7474854324827,45.36960887523301,0
-120.7474503620781,45.3697247471294,0
-120.7473197209935,45.37017881971824,0
-120.7472256325809,45.37051233420527,0
-120.7471170767841,45.37089733495107,0
-120.7471142628374,45.37092908152365,0
-120.7471114367705,45.37096120878951,0
-120.7471181052105,45.37099029295703,0
-120.7471247811735,45.37102005870589,0
-120.747136704174,45.37105008455356,0
-120.7471494281816,45.37107367687207,0
-120.7471693573944,45.37109883825891,0
-120.7472193912339,45.37116110485373,0
-120.7473612714535,45.37132368554503,0
-120.7474228795779,45.37139484627058,0
-120.7474618969354,45.37143936358166,0
-120.7475150562745,45.37150806098904,0
-120.7475399451457,45.37154072684358,0
-120.7475595252571,45.37156981061086,0
-120.7475844828543,45.3716099963032,0
-120.7476199083691,45.37168139718911,0
-120.7476371052675,45.37173156341715,0
-120.7476534784549,45.37178974772394,0
-120.7476688851856,45.37185932669414,0
-120.7476742434722,45.37190770622246,0
-120.7476761930469,45.37196753586836,0
-120.7476720813462,45.37202584450473,0
-120.7476632230241,45.3720886418043,0
-120.7476478802573,45.37215345608163,0
-120.7476266318275,45.37221137139396,0
-120.7476025646873,45.37226638101231,0
-120.7475743135729,45.37231913700328,0
-120.7475432199844,45.37236278466449,0
-120.7475037920764,45.3724190378246,0
-120.7474508556898,45.37247862461607,0
-120.7474157518233,45.37251662284989,0
-120.7473653749261,45.37256052244727,0
-120.7473106610395,45.37259870886716,0
-120.7472737053792,45.37261976818731,0
-120.7472260160641,45.37264209860292,0
-120.7471669124161,45.37266417630236,0
-120.7471096463707,45.37268145659082,0
-120.7470593898742,45.37269199017797,0
-120.7470121593317,45.37269867588048,0
-120.7469617233884,45.37270248973374,0
-120.7469161276611,45.37270391607341,0
-120.7468604450547,45.37270105478741,0
-120.7468014335027,45.3726948603417,0
-120.7467485340281,45.37268531410805,0
-120.7466824761602,45.37266949125431,0
-120.7466181853627,45.37264855692558,0
-120.7465518793055,45.37262156597599,0
-120.746461901724,45.37257997416282,0
-120.7463757137585,45.37253588328044,0
-120.7463026532708,45.37249455388169,0
-120.7462308744436,45.37245401633053,0
-120.7461502022931,45.37240089641453,0
-120.7460768222669,45.37234737360442,0
-120.7460099537374,45.3722911913633,0
-120.7459665868185,45.37224859848848,0
-120.745931388961,45.37221075178656,0
-120.7458977919039,45.37216320625895,0
-120.7458711135191,45.37211646553389,0
-120.7458510418395,45.37206825301583,0
-120.7458223416914,45.37198058487865,0
-120.7458123568348,45.37195668040983,0
-120.7457862582022,45.37192011078778,0
-120.7457606215241,45.3718945820401,0
-120.7457300122491,45.37187000893137,0
-120.7456968724114,45.37185172086201,0
-120.7456520056082,45.37183230479218,0
-120.7456034146697,45.37181639177705,0
-120.7455518926669,45.37180519061045,0
-120.7454956018471,45.37180076368643,0
-120.7454515452848,45.37179903981042,0
-120.7453950242418,45.37180260864476,0
-120.7453258572928,45.37181306067506,0
-120.7452517721282,45.37182906616698,0
-120.7451744309817,45.37184900695213,0
-120.745107309505,45.37186742887539,0
-120.7450485057738,45.37188787306932,0
-120.7449688230742,45.37191930226675,0
-120.7448614781673,45.37196689518833,0
-120.7447948680069,45.37199370997555,0
-120.74473247954,45.37201759063603,0
-120.7446930899705,45.37202969083427,0
-120.7446540912899,45.37203911231447,0
-120.7446192801702,45.37204641113803,0
-120.744580182234,45.37205158890698,0
-120.7445382908348,45.37205465817911,0
-120.7444844158398,45.37205258155099,0
-120.7444347857872,45.3720463927577,0
-120.744387496905,45.37203743078718,0
-120.7443420655709,45.37202536518403,0
-120.7442877044167,45.37200533095835,0
-120.7442489564968,45.37198727568602,0
-120.7441932714525,45.37195662480795,0
-120.74411953455,45.37191695377406,0
-120.7439181190439,45.37180912602963,0
-120.7436672434061,45.37167684975636,0
-120.7434599852217,45.37156713122962,0
-120.7434203903529,45.37154399128898,0
-120.7433781497561,45.37151877259593,0
-120.7433382740546,45.37149354388816,0
-120.7432950546146,45.3714576791412,0
-120.7432654012579,45.37142356907224,0
-120.7432470190668,45.37139532270898,0
-120.7432350147767,45.37136899869907,0
-120.7432213224888,45.37132760450579,0
-120.7432148539606,45.37128969296141,0
-120.7432155797471,45.37125352119785,0
-120.7432234144182,45.37121575924506,0
-120.7432358871802,45.3711826379181,0
-120.7432671428436,45.37113869302595,0
-120.7433112943484,45.37109016971282,0
-120.7433743152327,45.37103049017353,0
-120.7436221462442,45.37080553467792,0
-120.7439170205214,45.37054159592794,0
-120.744255006376,45.37023681506066,0
-120.7446841622733,45.3698491921603,0
-120.7449503893916,45.36961035210139,0
-120.7450923778873,45.36948110898345,0
-120.7452162045572,45.36937011063947,0
-120.7452798355025,45.36931013588802,0
-120.7453218080123,45.36926917469501,0
-120.7453649433134,45.36922162416441,0
-120.7454052826363,45.36916248317262,0
-120.7454345549504,45.36910425621565,0
-120.7455566242771,45.36885663581388,0
-120.7456933734938,45.36858136752614,0
-120.7457252617793,45.368518533036,0
-120.7457345258177,45.36849920523393,0
-120.7457343784828,45.36848073325557,0
-120.7457322791172,45.36846664374734,0
-120.7457238321023,45.36844108225554,0
-120.7457128710908,45.36842790391894,0
-120.7457011889344,45.36841723475658,0
-120.7456812173956,45.36840430259453,0
-120.7456486991728,45.36839226043669,0
-120.7456158873048,45.36838600570967,0
-120.7455861921654,45.36838377909485,0
-120.7453504177076,45.3684001103984,0
-120.7451896610634,45.36840918721632,0
-120.7449298641622,45.36842818330959,0
-120.744675539781,45.36844488617661,0
-120.7445232761424,45.36845307565567,0
-120.7444224772174,45.36845836832323,0
-120.7442841730546,45.36846608976619,0
-120.7441453336552,45.36847645212347,0
-120.7440112772179,45.36848729677992,0
-120.7438951468677,45.3684985143973,0
-120.7437810331265,45.36851059299892,0
-120.7436830837021,45.36852041476881,0
-120.7435954106656,45.36853130187371,0
-120.7435173017425,45.36854274894659,0
-120.7433954705097,45.36856451950922,0
-120.7432987590908,45.36858054744229,0
-120.7431904859135,45.36860185474236,0
-120.743122575863,45.36861326077295,0
-120.7430642453432,45.36862206547298,0
-120.7430236093452,45.36862618618768,0
-120.7429777904808,45.36862820136126,0
-120.7429356931511,45.3686286510935,0
-120.7428833081055,45.36862594554923,0
-120.7428291316841,45.36861851243474,0
-120.7427893669877,45.3686120874418,0
-120.7427431520767,45.3686025943291,0
-120.7427026522231,45.3685899689584,0
-120.7426750892101,45.36858109187688,0
-120.7426342492735,45.36856451694251,0
-120.7425979295498,45.36854753553773,0
-120.7425670153345,45.36853021331365,0
-120.7425313493032,45.36850801620981,0
-120.7424981555963,45.36848450577067,0
-120.7424608427155,45.36845341656958,0
-120.7424199033439,45.36841125482637,0
-120.7424004735164,45.36838257279589,0
-120.742384024,45.36835707037573,0
-120.7423675871674,45.36832431646954,0
-120.7423604616862,45.36830443782011,0
-120.7423496593385,45.36827157462174,0
-120.742341731597,45.36824283557548,0
-120.7423365299091,45.36821375221109,0
-120.7423373871331,45.36817005141653,0
-120.7423404311815,45.36813571489714,0
-120.7423495215705,45.36809965585791,0
-120.7423732959951,45.36801074954125,0
-120.7424099311533,45.36786664349415,0
-120.7424469810977,45.36770916373077,0
-120.7424774693674,45.36757583476983,0
-120.7425316206724,45.36735534838929,0
-120.7425555798132,45.36726047942739,0
-120.7425709197149,45.36720721894323,0
-120.7425943553838,45.36715122294678,0
-120.7426357679423,45.36706221380179,0
-120.7426674934621,45.36700327086803,0
-120.7427198627861,45.36692193725833,0
-120.7427577570929,45.36686940712906,0
-120.7427960817128,45.36682181538167,0
-120.7428281936965,45.3667872130496,0
-120.7428595740702,45.36675018244611,0
-120.7428854664742,45.36672430315916,0
-120.7429202920783,45.36669130634476,0
-120.7429772305037,45.36663941578446,0
-120.7430579712334,45.36657525332212,0
-120.7432178008401,45.36646053871691,0
-120.7434064106167,45.36632145454812,0
-120.7435152420308,45.36624354492815,0
-120.7436170712608,45.36616917498197,0
-120.7437544548606,45.36610818020474,0
-120.7439281626161,45.36598224514819,0
-120.7441183277082,45.36585058377104,0
-120.7442390641898,45.36577165474436,0
-120.7443868161182,45.36568253505606,0
-120.7444367249981,45.36565275329778,0
-120.744472693588,45.36562891539198,0
-120.7445155225619,45.36559612202969,0
-120.7445506582314,45.36556340833618,0
-120.7445772714084,45.36553522686487,0
-120.7445997169104,45.36550537515275,0
-120.7446167610714,45.36547513851261,0
-120.7446349716218,45.36544347583009,0
-120.7446460477485,45.36541629451856,0
-120.7446572236878,45.3653840451722,0
-120.7446651701465,45.36534860541914,0
-120.7446670775827,45.36531080311806,0
-120.7446648642693,45.36527266039447,0
-120.7446601872067,45.3652256752667,0
-120.7446558785939,45.36518269724601,0
-120.7444814490242,45.36380214508532,0
