-122.1475259254841,47.32101804110926,0
-122.1496819414534,47.32116581083907,0
-122.1498525939098,47.32118909596624,0
-122.1504214433862,47.32133368732497,0
-122.1512725086778,47.32159373141165,0
-122.1518842203507,47.32178244369228,0
-122.1526635858078,47.32201507560572,0
-122.1530286960055,47.32212630233258,0
-122.1533117761638,47.32219484945054,0
-122.1535679038172,47.32221417440095,0
-122.15386126223,47.32217757283189,0
-122.154126386305,47.32210938413858,0
-122.154329564657,47.32200884049477,0
-122.1544966243148,47.32189164539688,0
-122.1545949316889,47.32179226691984,0
-122.1546745078762,47.32167033425668,0
-122.1547159273786,47.32156388177425,0
-122.1547402461642,47.32145321919556,0
-122.1547370718542,47.32131871064054,0
-122.1547101780704,47.32122237481056,0
-122.1546750433733,47.32113562515786,0
-122.154616281898,47.3210321669952,0
-122.154550637551,47.32095742290883,0
-122.1544660856634,47.32087945453401,0
-122.1543265859425,47.3207835482375,0
-122.1541972536966,47.32071596725147,0
-122.1540564397145,47.32066701390385,0
-122.1537857706595,47.32059839033704,0
-122.1535949256756,47.320560692091,0
-122.1534202162012,47.32052742768138,0
-122.1530279942193,47.32044938764518,0
-122.1526700635048,47.32038012094867,0
-122.1522040600725,47.32029680236676,0
-122.1518289332788,47.32026123988269,0
-122.1514637980192,47.32024332321295,0
-122.151238433451,47.32024235928395,0
-122.1508450412212,47.3202511179353,0
-122.1503741899039,47.32026142243333,0
-122.149692575073,47.32027415824727,0
-122.1494549520218,47.32027079954068,0
-122.149302501167,47.32026056566911,0
-122.1491219432055,47.32023361610801,0
-122.148964360936,47.32019358257815,0
-122.1488220669222,47.32012550799105,0
-122.1487470319286,47.32008185420128,0
-122.1486903979041,47.32003204983372,0
-122.1486535076361,47.31997653584028,0
-122.1486450898307,47.31991631506956,0
-122.1486837070532,47.31984815019018,0
-122.1487448691094,47.3198029221062,0
-122.1488471243158,47.31976111338716,0
-122.1489300554134,47.3197595019704,0
-122.1491561600698,47.31978654381847,0
-122.1495217955439,47.3198275396134,0
-122.1497781878369,47.31985688189641,0
-122.1498882912801,47.31984926637771,0
-122.1499561373278,47.31983267853207,0
-122.1500543045482,47.31978685205282,0
-122.1500930844016,47.31975681790922,0
-122.1501233672374,47.31971144671298,0
-122.1501528731658,47.3196437840167,0
-122.1501527643534,47.3195700623914,0
-122.1501385761733,47.31952856091845,0
-122.1500886474848,47.31947144474736,0
-122.1500110963311,47.31941588597494,0
-122.1499398576438,47.31938744249691,0
-122.1498153023246,47.319350290543,0
-122.1496291197947,47.31931625753762,0
-122.1494290319228,47.31928771288239,0
-122.1490423883145,47.31922835496174,0
-122.1486775301719,47.31922147938088,0
-122.1483066513247,47.31921929534882,0
-122.1479435299963,47.31920689187995,0
-122.1475932247446,47.31920293018804,0
-122.1474263560204,47.31919951301504,0
-122.1472014152683,47.31917055605721,0
-122.1467888269333,47.31912093027495,0
-122.1462337419526,47.31907176751291,0
-122.145955181924,47.31906767279728,0
-122.1456721574898,47.31906123437727,0
-122.1453504909719,47.31906005729214,0
-122.1451746222249,47.31905447043923,0
-122.1449647901853,47.31904246070912,0
-122.1447492791893,47.31906444812054,0
-122.144514819207,47.31911268981892,0
-122.1441117848831,47.31917358405244,0
-122.1439228576088,47.31921902116774,0
-122.1435753742893,47.31927307846285,0
-122.1434059521884,47.31929229754984,0
-122.1432201835242,47.3193008400744,0
-122.1430379433744,47.31928667522937,0
-122.1428295104805,47.31924826000071,0
-122.1426813998598,47.31921906589418,0
-122.1424724561038,47.3192005916479,0
-122.1423338310868,47.31920862724715,0
-122.1421841270766,47.31923779920488,0
-122.1418418099828,47.31934618399962,0
-122.1416245664917,47.31941168007454,0
-122.1413823838886,47.31948966961462,0
-122.1411069653975,47.31951399752813,0
-122.1406704274825,47.31953781175958,0
-122.1406209745191,47.31953197881105,0
-122.140549835836,47.31949285094855,0
-122.1402369065325,47.31936282450427,0
-122.1397798639916,47.3191549729405,0
-122.1397219780963,47.31913630011736,0
-122.1396099180321,47.31912177051325,0
-122.1394743163292,47.3191420081786,0
-122.139237455479,47.31918278012089,0
-122.1389892240589,47.31924109496664,0
-122.1386444731413,47.31934322326573,0
-122.1382725666679,47.31944410013962,0
-122.1380195397894,47.3194990507535,0
-122.1376599492974,47.31960421982465,0
-122.1373167470543,47.31967560777638,0
-122.137055796666,47.31974169730394,0
-122.1367348784625,47.31977495840435,0
-122.1363958503343,47.31982835553837,0
-122.1361263568808,47.31992216793231,0
-122.1359431277971,47.32000158855971,0
-122.1357021033573,47.32010768695272,0
-122.1355650032782,47.32025758684136,0
-122.1353220774421,47.32056083391782,0
-122.1350309117848,47.32092852958562,0
-122.1348405604381,47.32117221380412,0
-122.1347899664231,47.32126306574958,0
-122.1347961807697,47.3213814105187,0
-122.1348219337228,47.32148532015714,0
-122.1349367445888,47.32170159582186,0
-122.1350774387745,47.32179804420171,0
-122.1352780445501,47.32189757862258,0
-122.1354672496615,47.32193220772565,0
-122.1357049819393,47.3219208473576,0
-122.1359712759425,47.32185375650938,0
-122.1363552253503,47.32168184040864,0
-122.1365486695898,47.32158293410081,0
-122.1366979445891,47.3214773895699,0
-122.1369099674888,47.32134141255582,0
-122.1371941768975,47.32115203988052,0
-122.1374936574364,47.32096424167464,0
-122.1376545332518,47.32084360979209,0
-122.137777422913,47.32079250319203,0
-122.1379331840203,47.32073315891581,0
-122.1380618940222,47.32069766829849,0
-122.1381921065973,47.3206837262786,0
-122.1384188860842,47.32067266682235,0
-122.1387057361959,47.32067119273718,0
-122.1392275933887,47.32068392000991,0
-122.1397200542403,47.32072081951449,0
-122.1401647571619,47.32075298597704,0
-122.1415284041033,47.32085191625957,0
-122.1426622015766,47.32092968901847,0
-122.1433875152462,47.3209813070522,0
-122.1438411331827,47.32096277075804,0
-122.1444422815092,47.32090541594799,0
-122.145139634101,47.32084467010278,0
-122.1475259254841,47.32101804110926,0

